{
  "exits":[
    {
      "id":"E1",
      "neighbors":[
        "C1", "C2"
      ]
    },
    {
      "id":"E2",
      "neighbors":[
        "C49", "C51"
      ]
    }
  ],
  "rooms":[
    {
      "id":"R1",
      "neighbors":[
        "C7", "C8"
      ],
      "peoples":5
    },
    {
      "id":"R2",
      "neighbors":[
        "C18", "C20"
      ],
      "peoples":2
    },
    {
      "id":"R3",
      "neighbors":[
        "C42", "C43"
      ],
      "peoples":4
    },
    {
      "id":"R4",
      "neighbors":[
        "C30", "C31"
      ],
      "peoples":7
    },
    {
      "id":"R5",
      "neighbors":[
        "C56", "C61"
      ],
      "peoples":3
    },
    {
      "id":"R6",
      "neighbors":[
        "C64", "C65"
      ],
      "peoples":3
    }
  ],
  "cells":[
    {
      "id":"C1",
      "neighbors":[
        "C2",
        "C3"
      ]
    },
    {
      "id":"C2",
      "neighbors":[
        "C4"
      ]
    },
    {
      "id":"C3",
      "neighbors":[
        "C4", "C5"
      ]
    },
    {
      "id":"C4",
      "neighbors":[
        "C6"
      ]
    },
    {
      "id":"C5",
      "neighbors":[
        "C6","C7"
      ]
    },
    {
      "id":"C6",
      "neighbors":[

      ]
    },
    {
      "id":"C7",
      "neighbors":[
        "C8", "C12"
      ]
    },
    {
      "id":"C8",
      "neighbors":[
        "C9", "C11"
      ]
    },
    {
      "id":"C9",
      "neighbors":[
        "C10"
      ]
    },
    {
      "id":"C10",
      "neighbors":[
        "C11", "C13"
      ]
    },
    {
      "id":"C11",
      "neighbors":[
        "C12", "C14"
      ]
    },
    {
      "id":"C12",
      "neighbors":[
        "C8"
      ]
    },
    {
      "id":"C13",
      "neighbors":[
        "C14", "C15"
      ]
    },
    {
      "id":"C14",
      "neighbors":[
        "C16"
      ]
    },
    {
      "id":"C15",
      "neighbors":[
        "C16", "C17"
      ]
    },
    {
      "id":"C16",
      "neighbors":[
        "C18"
      ]
    },
    {
      "id":"C17",
      "neighbors":[
        "C18", "C19"
      ]
    },
    {
      "id":"C18",
      "neighbors":[
        "C20"
      ]
    },
    {
      "id":"C19",
      "neighbors":[
        "C20", "C21"
      ]
    },
    {
      "id":"C20",
      "neighbors":[
        "C22"
      ]
    },
    {
      "id":"C21",
      "neighbors":[
        "C22", "C23"
      ]
    },
    {
      "id":"C22",
      "neighbors":[
        "C24"
      ]
    },
    {
      "id":"C23",
      "neighbors":[
        "C24", "C33"
      ]
    },
    {
      "id":"C24",
      "neighbors":[
        "C25", "C34"
      ]
    },
    {
      "id":"C25",
      "neighbors":[
        "C26", "C35"
      ]
    },
    {
      "id":"C26",
      "neighbors":[
        "C27", "C36"
      ]
    },
    {
      "id":"C27",
      "neighbors":[
        "C28", "C37"
      ]
    },
    {
      "id":"C28",
      "neighbors":[
        "C29", "C38", "C52"
      ]
    },
    {
      "id":"C29",
      "neighbors":[
        "C30", "C39", "C53"
      ]
    },
    {
      "id":"C30",
      "neighbors":[
        "C31", "C54"
      ]
    },
    {
      "id":"C31",
      "neighbors":[
        "C32", "C55"
      ]
    },
    {
      "id":"C32",
      "neighbors":[
        "C56"
      ]
    },
    {
      "id":"C33",
      "neighbors":[
        "C34", "C40"
      ]
    },
    {
      "id":"C34",
      "neighbors":[
        "C35", "C41"
      ]
    },
    {
      "id":"C35",
      "neighbors":[
        "C36", "C42"
      ]
    },
    {
      "id":"C36",
      "neighbors":[
        "C37", "C43"
      ]
    },
    {
      "id":"C37",
      "neighbors":[
        "C38", "C44"
      ]
    },
    {
      "id":"C38",
      "neighbors":[
        "C39", "C45"
      ]
    },
    {
      "id":"C39",
      "neighbors":[
      ]
    },
    {
      "id":"C40",
      "neighbors":[
        "C41"
      ]
    },
    {
      "id":"C41",
      "neighbors":[
        "C42"
      ]
    },
    {
      "id":"C42",
      "neighbors":[
        "C43"
      ]
    },
    {
      "id":"C43",
      "neighbors":[
        "C44"
      ]
    },
    {
      "id":"C44",
      "neighbors":[
        "C45", "C46"
      ]
    },
    {
      "id":"C45",
      "neighbors":[
        "C47"
      ]
    },
    {
      "id":"C46",
      "neighbors":[
        "C47", "C48"
      ]
    },
    {
      "id":"C47",
      "neighbors":[
        "C49"
      ]
    },
    {
      "id":"C48",
      "neighbors":[
        "C49", "C50"
      ]
    },
    {
      "id":"C49",
      "neighbors":[
        "C51"
      ]
    },
    {
      "id":"C50",
      "neighbors":[
        "C51"
      ]
    },
    {
      "id":"C51",
      "neighbors":[
      ]
    },
    {
      "id":"C52",
      "neighbors":[
        "C53", "C57"
      ]
    },
    {
      "id":"C53",
      "neighbors":[
        "C54", "C58"
      ]
    },
    {
      "id":"C54",
      "neighbors":[
        "C55", "C59"
      ]
    },
    {
      "id":"C55",
      "neighbors":[
        "C56"
      ]
    },
    {
      "id":"C56",
      "neighbors":[
        "C61"
      ]
    },
    {
      "id":"C57",
      "neighbors":[
        "C58", "C62"
      ]
    },
    {
      "id":"C58",
      "neighbors":[
        "C59", "C63"
      ]
    },
    {
      "id":"C59",
      "neighbors":[
        "C60", "C64"
      ]
    },
    {
      "id":"C60",
      "neighbors":[
        "C55", "C61", "C65"
      ]
    },
    {
      "id":"C61",
      "neighbors":[
        "C66"
      ]
    },
    {
      "id":"C62",
      "neighbors":[
        "C63", "C67"
      ]
    },
    {
      "id":"C63",
      "neighbors":[
        "C64", "C68"
      ]
    },
    {
      "id":"C64",
      "neighbors":[
        "C65"
      ]
    },
    {
      "id":"C65",
      "neighbors":[
        "C66"
      ]
    },
    {
      "id":"C66",
      "neighbors":[
      ]
    },
    {
      "id":"C67",
      "neighbors":[
        "C68", "C69"
      ]
    },
    {
      "id":"C68",
      "neighbors":[
        "C70"
      ]
    },
    {
      "id":"C69",
      "neighbors":[
        "C70", "C72"
      ]
    },
    {
      "id":"C70",
      "neighbors":[
        "C71"
      ]
    },
    {
      "id":"C71",
      "neighbors":[
        "C72"
      ]
    },
    {
      "id":"C72",
      "neighbors":[
        "C73"
      ]
    },
    {
      "id":"C73",
      "neighbors":[
        "C6", "C74"
      ]
    },
    {
      "id":"C74",
      "neighbors":[
        "C75"
      ]
    },
    {
      "id":"C75",
      "neighbors":[
        "C6", "C76"
      ]
    },
    {
      "id":"C76",
      "neighbors":[
        "C5", "C12"
      ]
    }
  ]
}